^C:\Users\kbush\source\repos\CommonCodeSource\CommonCodeSource_TEST\CommonCodeSource_TEST.vcxproj
C:\Users\kbush\source\repos\CommonCodeSource\Debug\CommonCodeSource_TEST.lib
C:\Users\kbush\source\repos\CommonCodeSource\Debug\CommonCodeSource_TEST.exp
